<?xml version="1.0" encoding="utf-8"?>
<!-- Generator: Adobe Illustrator 23.0.3, SVG Export Plug-In . SVG Version: 6.00 Build 0)  -->
<svg version="1.1" xmlns="http://www.w3.org/2000/svg" xmlns:xlink="http://www.w3.org/1999/xlink" x="0px" y="0px"
	 viewBox="0 0 441.07 150.03" style="enable-background:new 0 0 441.07 150.03;" xml:space="preserve">
<style type="text/css">
	.st0{clip-path:url(#SVGID_2_);}
	.st1{fill:#909194;}
	.st2{fill:#D2202F;}
	.st3{display:none;}
	.st4{display:inline;}
</style>
<g id="Logo_x5F_Artwork">
	<g>
		<defs>
			<rect id="SVGID_1_" width="441.07" height="150.03"/>
		</defs>
		<clipPath id="SVGID_2_">
			<use xlink:href="#SVGID_1_"  style="overflow:visible;"/>
		</clipPath>
		<g class="st0">
			<path class="st1" d="M216.98,76.73c-10.69,0-18.62,8.67-18.62,18.89c0,10.15,7.87,18.69,18.62,18.69
				c10.76,0,18.62-8.54,18.62-18.69C235.61,85.4,227.67,76.73,216.98,76.73z M216.98,109.87c-8.07,0-13.92-6.39-13.92-14.19
				c0-7.93,6.25-14.52,13.92-14.52c7.6,0,13.92,6.59,13.92,14.52C230.9,103.49,224.98,109.87,216.98,109.87z M255.58,76.73
				c-10.24,0-15.7,6.06-15.7,18.13v18.53h4.85V95.93c0-5.12-0.07-8.56,2.76-11.59c1.89-1.95,4.79-3.17,8.09-3.17
				c4.51,0,8.22,2.09,9.91,5.73c1.01,2.16,1.01,5.26,1.01,9.03v17.45h4.85V94.85C271.35,82.79,265.82,76.73,255.58,76.73z
				 M370.58,81.16c5.38,0,9.75,2.02,12.91,6.19l3.7-2.29c-3.29-5.51-9.55-8.34-16.41-8.34c-11.77,0-19.97,8.61-19.97,19.09
				c0,9.95,7.87,18.42,19.63,18.42c7.19,0,13.25-2.76,16.74-8.07l-3.7-2.35c-3.36,4.17-7.66,6.25-12.84,6.25
				c-9.21,0-15.13-6.79-15.13-14.59C355.52,87.82,361.5,81.16,370.58,81.16z M174.09,68.59c6.93,0,12.98,2.76,17.21,8.34l3.83-2.89
				c-4.77-6.66-12.24-10.15-21.11-10.15c-14.99,0-26.02,10.82-26.02,25.08c0,14.19,9.88,25.55,26.02,25.55
				c8.81,0,16.14-3.29,21.11-9.55l-3.83-2.89c-4.51,5.24-10.22,8-16.94,8c-12.17,0-21.31-8.74-21.31-20.71
				C153.04,77.06,162.66,68.59,174.09,68.59z M344.74,93.59c-0.03,5.08-0.91,10.59-7.36,14.46c-6.62,3.98-14.55,1.71-18.98-5.28
				l27.77-16.68c-6.26-10.15-17.15-12.23-25.92-6.96c-9.64,5.79-11.11,17.43-6.05,25.85c4.96,8.25,15.54,12.57,25.76,6.42
				c6.74-4.05,9.71-10.03,9.15-18.07L344.74,93.59z M316.71,99.05c-1.97-7.35,0.38-12.8,5.89-16.11c5.34-3.21,11.64-3.12,17.11,2.29
				L316.71,99.05z M397.09,77.67V65.24h-4.57v48.13h4.57V81.7h7.33v-4.03H397.09z M292.5,76.73c-10.24,0-15.7,6.06-15.7,18.13v18.53
				h4.85V95.93c0-5.12-0.07-8.56,2.76-11.59c1.89-1.95,4.78-3.17,8.09-3.17c4.51,0,8.22,2.09,9.9,5.73
				c1.01,2.16,1.01,5.26,1.01,9.03v17.45h4.85V94.85C308.27,82.79,302.75,76.73,292.5,76.73z"/>
			<path class="st2" d="M83.36,113.37h4.57V82.39h-4.57V113.37z M85.58,70.03c-2.02,0-3.77,1.61-3.77,3.77
				c0,2.08,1.68,3.83,3.77,3.83c2.08,0,3.83-1.75,3.83-3.83C89.41,71.71,87.67,70.03,85.58,70.03z M57.9,102.41l-16-37.32h-5.24
				l20.71,48.28h1.08l20.98-48.28h-5.24L57.9,102.41z M95.92,113.37h4.57V82.39h-4.57V113.37z M141.89,65.09l-16.27,37.32l-16-37.32
				h-5.25l20.71,48.28h1.08l20.98-48.28H141.89z M122.93,71.14h5.39c-0.65-18.18-12.37-28.13-23.21-32.23
				c-20.52-7.75-46.87,4.73-47.58,32.16v0.06h0.74l0-0.06c1.09-27.29,27.71-36.8,45.39-29.01
				C113.88,46.58,122.29,56.87,122.93,71.14z M98.14,70.03c-2.02,0-3.77,1.61-3.77,3.77c0,2.08,1.68,3.83,3.77,3.83
				s3.83-1.75,3.83-3.83C101.97,71.71,100.22,70.03,98.14,70.03z"/>
		</g>
	</g>
</g>
<g id="Trademark" class="st3">
	<g class="st4">
		<path class="st1" d="M407.11,66.2h-1.4v3.98h-1.22V66.2h-1.4v-0.96h4.03V66.2z M413.46,70.18h-1.15v-3.5h-0.02l-1.27,3.5h-0.83
			l-1.27-3.5h-0.02v3.5h-1.15v-4.94h1.63l1.24,3.25l1.24-3.25h1.62V70.18z"/>
	</g>
</g>
</svg>
