<svg id="Layer_1" data-name="Layer 1" xmlns="http://www.w3.org/2000/svg" width="2012.5" height="707.82" viewBox="0 0 2012.5 707.82">
  <title>cd4_chart</title>
  <text transform="translate(54.17 35.07)" style="font-size: 26.900590896606445px;fill: #231f20;font-family: OpenSans-Semibold, Open Sans;font-weight: 700"><tspan style="letter-spacing: -0.009003055023246808em">10</tspan><tspan x="30.23" y="0">0</tspan></text>
  <text transform="translate(69.29 153.41)" style="font-size: 26.900590896606445px;fill: #231f20;font-family: OpenSans-Semibold, Open Sans;font-weight: 700"><tspan style="letter-spacing: -0.009003055023246808em">8</tspan><tspan x="15.11" y="0">0</tspan></text>
  <text transform="translate(69.29 273.42)" style="font-size: 26.900590896606445px;fill: #231f20;font-family: OpenSans-Semibold, Open Sans;font-weight: 700"><tspan style="letter-spacing: -0.009003055023246808em">6</tspan><tspan x="15.11" y="0">0</tspan></text>
  <text transform="translate(69.29 393.1)" style="font-size: 26.900590896606445px;fill: #231f20;font-family: OpenSans-Semibold, Open Sans;font-weight: 700"><tspan style="letter-spacing: -0.009003055023246808em">4</tspan><tspan x="15.11" y="0">0</tspan></text>
  <text transform="translate(69.29 513.77)" style="font-size: 26.900590896606445px;fill: #231f20;font-family: OpenSans-Semibold, Open Sans;font-weight: 700"><tspan style="letter-spacing: -0.009003055023246808em">2</tspan><tspan x="15.11" y="0">0</tspan></text>
  <text transform="translate(84.41 632.11)" style="font-size: 26.900590896606445px;fill: #231f20;font-family: OpenSans-Semibold, Open Sans;font-weight: 700">0</text>
  <text transform="translate(1410.93 31.85)" style="font-size: 29.99393081665039px;fill: #ea1b75;font-family: OpenSans, Open Sans">%</text>
  <polygon points="1434.9 82.29 1434.9 622.15 1419.89 622.15 1419.89 67.73 1434.9 82.29" style="fill: #8e1d58"/>
  <polyline points="107.38 24.65 116.29 24.65 124.29 622.45 2012.5 622.45" style="fill: none;stroke: #929497;stroke-miterlimit: 10"/>
  <line x1="107.38" y1="143.39" x2="116.29" y2="143.39" style="fill: none;stroke: #929497;stroke-miterlimit: 10"/>
  <line x1="107.38" y1="263.32" x2="116.29" y2="263.32" style="fill: none;stroke: #929497;stroke-miterlimit: 10"/>
  <line x1="107.38" y1="382.92" x2="116.29" y2="382.92" style="fill: none;stroke: #929497;stroke-miterlimit: 10"/>
  <line x1="107.38" y1="503.54" x2="116.29" y2="503.54" style="fill: none;stroke: #929497;stroke-miterlimit: 10"/>
  <line x1="107.38" y1="621.8" x2="116.29" y2="621.8" style="fill: none;stroke: #929497;stroke-miterlimit: 10"/>
  <g>
    <text transform="translate(1347.95 48.99)" style="font-size: 57.164058685302734px;fill: #ea1b75;font-family: OpenSans-Bold, Open Sans;font-weight: 700;letter-spacing: -0.018996857902939663em">9<tspan x="31.54" y="0" style="letter-spacing: 0.000017083505308398977em">3</tspan></text>
    <rect x="1331.61" y="67.73" width="88.28" height="554.42" style="fill: #ea1b75"/>
    <text transform="translate(1325.5 667.92)" style="font-size: 26.900590896606445px;fill: #231f20;font-family: OpenSans-Semibold, Open Sans;font-weight: 700;letter-spacing: -0.01001952897748435em">DOVATO<tspan style="letter-spacing: -0.00998322633626158em"><tspan x="8.28" y="32.28">(n=653)</tspan></tspan></text>
  </g>
  <g>
    <g>
      <text transform="translate(1721.35 31.88)" style="font-size: 29.99393081665039px;fill: #929497;font-family: OpenSans, Open Sans">%</text>
      <text transform="translate(1658.38 49.01)" style="font-size: 57.164058685302734px;fill: #929497;font-family: OpenSans-Bold, Open Sans;font-weight: 700;letter-spacing: -0.018996857902939663em">9<tspan x="31.54" y="0" style="letter-spacing: 0.000017083505308398977em">3</tspan></text>
    </g>
    <rect x="1642.03" y="67.76" width="88.28" height="554.42" style="fill: #d0d2d3"/>
    <polygon points="1745.32 82.31 1745.32 622.18 1730.31 622.18 1730.31 67.76 1745.32 82.31" style="fill: #b1b3b5"/>
    <text transform="translate(1602.82 667.95)" style="font-size: 26.900590896606445px;fill: #231f20;font-family: OpenSans-Semibold, Open Sans;font-weight: 700;letter-spacing: -0.01001952897748435em">DTG + TDF/FTC <tspan style="letter-spacing: -0.00998322633626158em"><tspan x="49.88" y="32.28">(n=662)</tspan></tspan></text>
  </g>
  <polygon points="383.72 152.25 383.72 622.15 452 622.15 452 152.26 383.72 152.25" style="fill: none"/>
  <g>
    <rect x="383.72" y="152.25" width="88.28" height="469.9" style="fill: #ea1b75"/>
    <polygon points="487.02 166.81 487.02 622.15 472 622.15 472 152.26 487.02 166.81" style="fill: #8e1d58"/>
    <g>
      <text transform="translate(396.38 133.76)" style="font-size: 57.164058685302734px;fill: #ea1b75;font-family: OpenSans-Bold, Open Sans;font-weight: 700;letter-spacing: -0.019005399655593863em">79</text>
      <text transform="translate(459.35 116.63)" style="font-size: 29.99393081665039px;fill: #ea1b75;font-family: OpenSans, Open Sans">%</text>
    </g>
    <text transform="translate(372.62 667.92)" style="font-size: 26.900590896606445px;fill: #231f20;font-family: OpenSans-Semibold, Open Sans;font-weight: 700;letter-spacing: -0.010001377656872966em">DOVATO<tspan style="letter-spacing: -0.00998322633626158em"><tspan x="15.82" y="32.28">(n=63)</tspan></tspan></text>
  </g>
  <g>
    <g>
      <text transform="translate(769.67 31.85)" style="font-size: 29.99393081665039px;fill: #929497;font-family: OpenSans, Open Sans">%</text>
      <text transform="translate(706.69 48.99)" style="font-size: 57.164058685302734px;fill: #929497;font-family: OpenSans-Bold, Open Sans;font-weight: 700"><tspan style="letter-spacing: -0.019005399655593863em">9</tspan><tspan x="31.54" y="0">3</tspan></text>
    </g>
    <rect x="694.04" y="67.73" width="88.28" height="554.42" style="fill: #d0d2d3"/>
    <polygon points="797.34 82.29 797.34 622.15 782.32 622.15 782.32 67.73 797.34 82.29" style="fill: #b1b3b5"/>
    <text transform="translate(645.7 667.92)" style="font-size: 26.900590896606445px;fill: #231f20;font-family: OpenSans-Semibold, Open Sans;font-weight: 700;letter-spacing: -0.010001377656872966em">DTG + TDF/FTC<tspan style="letter-spacing: -0.00998322633626158em"><tspan x="54.06" y="32.28">(n=55)</tspan></tspan></text>
  </g>
  <text transform="translate(23.05 599.92) rotate(-90)" style="font-size: 26.90060043334961px;fill: #231f20;font-family: OpenSans-Semibold, Open Sans;font-weight: 700;letter-spacing: -0.009983322765833993em">PATIENTS WITH HIV-1 RNA &lt;50 copies/mL, %</text>
</svg>
